hw6.utf8
…
best <- best [,-c(2:4,6,8,13, 16, 20, 22, 42, 45, 51:55)]
colnames <- best[5,]
names(best) <- colnames

## Warning: Must use a character vector as names.
## This warning is displayed once per session.

best <- best[-c(1:6),]
best <- best[-c(173:183),]
Intelligence <- best[c(1,5)]
intelnames <- c("Breed", "Intelligence")
names(Intelligence) <- intelnames
Intelligence

## # A tibble: 172 x 2
##    Breed                          Intelligence 
##    <chr>                          <chr>        
##  1 Affenpinscher                  Above average
##  2 Afghan Hound                   Lowest       
##  3 Airedale Terrier               Above average
##  4 Akita                          Average      
##  5 Alaskan Malamute               Average      
##  6 American English Coonhound     no data      
##  7 American Eskimo Dog            no data      
##  8 American Foxhound              Average      
##  9 American Staffordshire Terrier Above average
## 10 American Water Spaniel         Average      
## #  with 162 more rows
…
